{
  "accessors": [
    {
      "bufferView": 3,
      "componentType": 5126,
      "count": 4459,
      "max": [
        1.119789958000183,
        4.808719635009766,
        1.0408600568771362
      ],
      "min": [
        -1.123840093612671,
        -3.6467697620391846,
        -4.423009872436523
      ],
      "type": "VEC3"
    },
    {
      "bufferView": 3,
      "byteOffset": 53508,
      "componentType": 5126,
      "count": 4459,
      "max": [
        0.9998354911804199,
        0.9992901682853699,
        0.9970800280570984
      ],
      "min": [
        -0.9998226165771484,
        -0.9999460577964783,
        -0.9994032382965088
      ],
      "type": "VEC3"
    },
    {
      "bufferView": 2,
      "componentType": 5126,
      "count": 4459,
      "max": [
        1.0,
        1.0
      ],
      "min": [
        0.0,
        0.0
      ],
      "type": "VEC2"
    },
    {
      "bufferView": 1,
      "componentType": 5125,
      "count": 15591,
      "type": "SCALAR"
    },
    {
      "bufferView": 3,
      "byteOffset": 107016,
      "componentType": 5126,
      "count": 63488,
      "max": [
        0.40240147709846497,
        3.9158873558044434,
        0.4410135746002197
      ],
      "min": [
        -0.4117715358734131,
        3.7371723651885986,
        0.2802264392375946
      ],
      "type": "VEC3"
    },
    {
      "bufferView": 3,
      "byteOffset": 868872,
      "componentType": 5126,
      "count": 63488,
      "max": [
        0.9982359409332275,
        0.999670147895813,
        0.9985992312431335
      ],
      "min": [
        -0.9982374310493469,
        -0.999670147895813,
        -0.9985992312431335
      ],
      "type": "VEC3"
    },
    {
      "bufferView": 2,
      "byteOffset": 35672,
      "componentType": 5126,
      "count": 63488,
      "max": [
        0.9449899792671204,
        0.9997100234031677
      ],
      "min": [
        0.0002899999963119626,
        0.0002899999963119626
      ],
      "type": "VEC2"
    },
    {
      "bufferView": 1,
      "byteOffset": 62364,
      "componentType": 5125,
      "count": 95232,
      "type": "SCALAR"
    },
    {
      "bufferView": 5,
      "componentType": 5126,
      "count": 50,
      "max": [
        1.0,
        1.0,
        0.999970018863678,
        0.0,
        1.0,
        1.0,
        0.9998199939727783,
        0.0,
        0.1963600069284439,
        0.9629600048065186,
        1.0000100135803223,
        0.0,
        3.431920051574707,
        4.313610076904297,
        5.177969932556152,
        1.0
      ],
      "min": [
        -1.0,
        -1.0,
        -0.9999899864196777,
        0.0,
        -1.0,
        -0.9937899708747864,
        -0.9999499917030334,
        0.0,
        -0.18929000198841095,
        -0.9999499917030334,
        -0.3401300013065338,
        0.0,
        -3.433259963989258,
        -4.415900230407715,
        -3.4043099880218506,
        1.0
      ],
      "type": "MAT4"
    },
    {
      "bufferView": 0,
      "componentType": 5123,
      "count": 4459,
      "type": "VEC4"
    },
    {
      "bufferView": 4,
      "componentType": 5126,
      "count": 4459,
      "max": [
        1.0,
        0.4951469600200653,
        0.3194451928138733,
        0.24060747027397156
      ],
      "min": [
        0.2600148916244507,
        0.0,
        0.0,
        0.0
      ],
      "type": "VEC4"
    },
    {
      "bufferView": 0,
      "byteOffset": 35672,
      "componentType": 5123,
      "count": 63488,
      "type": "VEC4"
    },
    {
      "bufferView": 4,
      "byteOffset": 71344,
      "componentType": 5126,
      "count": 63488,
      "max": [
        1.0,
        0.0,
        0.0,
        0.0
      ],
      "min": [
        1.0,
        0.0,
        0.0,
        0.0
      ],
      "type": "VEC4"
    },
    {
      "bufferView": 6,
      "componentType": 5126,
      "count": 1,
      "max": [
        0.0
      ],
      "min": [
        0.0
      ],
      "type": "SCALAR"
    },
    {
      "bufferView": 8,
      "componentType": 5126,
      "count": 1,
      "max": [
        0.0324721597135067,
        0.0,
        0.0,
        0.9994726181030273
      ],
      "min": [
        0.0324721597135067,
        0.0,
        0.0,
        0.9994726181030273
      ],
      "type": "VEC4"
    },
    {
      "bufferView": 6,
      "byteOffset": 4,
      "componentType": 5126,
      "count": 1,
      "max": [
        0.0
      ],
      "min": [
        0.0
      ],
      "type": "SCALAR"
    },
    {
      "bufferView": 8,
      "byteOffset": 16,
      "componentType": 5126,
      "count": 1,
      "max": [
        -0.005330092739313841,
        0.0,
        0.0,
        0.9999858140945435
      ],
      "min": [
        -0.005330092739313841,
        0.0,
        0.0,
        0.9999858140945435
      ],
      "type": "VEC4"
    },
    {
      "bufferView": 6,
      "byteOffset": 8,
      "componentType": 5126,
      "count": 92,
      "max": [
        4.0
      ],
      "min": [
        0.0
      ],
      "type": "SCALAR"
    },
    {
      "bufferView": 8,
      "byteOffset": 32,
      "componentType": 5126,
      "count": 92,
      "max": [
        -0.06397196650505066,
        0.06150507181882858,
        0.0010247707832604647,
        0.9979532361030579
      ],
      "min": [
        -0.07478660345077515,
        -0.1401519924402237,
        -0.0017082472331821918,
        0.9879443645477295
      ],
      "type": "VEC4"
    },
    {
      "bufferView": 6,
      "byteOffset": 376,
      "componentType": 5126,
      "count": 91,
      "max": [
        4.0
      ],
      "min": [
        0.0
      ],
      "type": "SCALAR"
    },
    {
      "bufferView": 8,
      "byteOffset": 1504,
      "componentType": 5126,
      "count": 91,
      "max": [
        0.07184728980064392,
        0.0,
        0.0,
        0.9982592463493347
      ],
      "min": [
        0.05935573950409889,
        0.0,
        0.0,
        0.9974156618118286
      ],
      "type": "VEC4"
    },
    {
      "bufferView": 6,
      "byteOffset": 740,
      "componentType": 5126,
      "count": 95,
      "max": [
        4.0
      ],
      "min": [
        0.0
      ],
      "type": "SCALAR"
    },
    {
      "bufferView": 8,
      "byteOffset": 2960,
      "componentType": 5126,
      "count": 95,
      "max": [
        0.0629480853676796,
        0.0,
        0.0,
        0.9993718266487122
      ],
      "min": [
        0.03541703522205353,
        0.0,
        0.0,
        0.9980146288871765
      ],
      "type": "VEC4"
    },
    {
      "bufferView": 6,
      "byteOffset": 1120,
      "componentType": 5126,
      "count": 1,
      "max": [
        0.0
      ],
      "min": [
        0.0
      ],
      "type": "SCALAR"
    },
    {
      "bufferView": 8,
      "byteOffset": 4480,
      "componentType": 5126,
      "count": 1,
      "max": [
        -0.3537794053554535,
        0.0,
        0.0,
        0.9353289008140564
      ],
      "min": [
        -0.3537794053554535,
        0.0,
        0.0,
        0.9353289008140564
      ],
      "type": "VEC4"
    },
    {
      "bufferView": 6,
      "byteOffset": 1124,
      "componentType": 5126,
      "count": 1,
      "max": [
        0.0
      ],
      "min": [
        0.0
      ],
      "type": "SCALAR"
    },
    {
      "bufferView": 8,
      "byteOffset": 4496,
      "componentType": 5126,
      "count": 1,
      "max": [
        -0.21225737035274506,
        0.0,
        0.0,
        0.9772137999534607
      ],
      "min": [
        -0.21225737035274506,
        0.0,
        0.0,
        0.9772137999534607
      ],
      "type": "VEC4"
    },
    {
      "bufferView": 6,
      "byteOffset": 1128,
      "componentType": 5126,
      "count": 1,
      "max": [
        0.0
      ],
      "min": [
        0.0
      ],
      "type": "SCALAR"
    },
    {
      "bufferView": 7,
      "componentType": 5126,
      "count": 1,
      "max": [
        1.9999999494757503e-05,
        0.7518631815910339,
        -0.18945473432540894
      ],
      "min": [
        1.9999999494757503e-05,
        0.7518631815910339,
        -0.18945473432540894
      ],
      "type": "VEC3"
    },
    {
      "bufferView": 6,
      "byteOffset": 1132,
      "componentType": 5126,
      "count": 1,
      "max": [
        0.0
      ],
      "min": [
        0.0
      ],
      "type": "SCALAR"
    },
    {
      "bufferView": 8,
      "byteOffset": 4512,
      "componentType": 5126,
      "count": 1,
      "max": [
        0.4215955436229706,
        -0.0009431628277525306,
        0.0008674351847730577,
        0.9067851305007935
      ],
      "min": [
        0.4215955436229706,
        -0.0009431628277525306,
        0.0008674351847730577,
        0.9067851305007935
      ],
      "type": "VEC4"
    },
    {
      "bufferView": 6,
      "byteOffset": 1136,
      "componentType": 5126,
      "count": 1,
      "max": [
        0.0
      ],
      "min": [
        0.0
      ],
      "type": "SCALAR"
    },
    {
      "bufferView": 8,
      "byteOffset": 4528,
      "componentType": 5126,
      "count": 1,
      "max": [
        0.07262513786554337,
        0.0,
        0.0,
        0.9973553419113159
      ],
      "min": [
        0.07262513786554337,
        0.0,
        0.0,
        0.9973553419113159
      ],
      "type": "VEC4"
    },
    {
      "bufferView": 6,
      "byteOffset": 1140,
      "componentType": 5126,
      "count": 1,
      "max": [
        0.0
      ],
      "min": [
        0.0
      ],
      "type": "SCALAR"
    },
    {
      "bufferView": 8,
      "byteOffset": 4544,
      "componentType": 5126,
      "count": 1,
      "max": [
        0.0,
        -0.40761488676071167,
        0.9131539463996887,
        0.0
      ],
      "min": [
        0.0,
        -0.40761488676071167,
        0.9131539463996887,
        0.0
      ],
      "type": "VEC4"
    },
    {
      "bufferView": 6,
      "byteOffset": 1144,
      "componentType": 5126,
      "count": 96,
      "max": [
        4.0
      ],
      "min": [
        0.0
      ],
      "type": "SCALAR"
    },
    {
      "bufferView": 8,
      "byteOffset": 4560,
      "componentType": 5126,
      "count": 96,
      "max": [
        0.014779128134250641,
        0.0,
        0.0,
        1.0000035762786865
      ],
      "min": [
        -0.023976746946573257,
        0.0,
        0.0,
        0.9997128844261169
      ],
      "type": "VEC4"
    },
    {
      "bufferView": 6,
      "byteOffset": 1528,
      "componentType": 5126,
      "count": 1,
      "max": [
        0.0
      ],
      "min": [
        0.0
      ],
      "type": "SCALAR"
    },
    {
      "bufferView": 8,
      "byteOffset": 6096,
      "componentType": 5126,
      "count": 1,
      "max": [
        0.22532401978969574,
        0.0,
        0.0,
        0.9742838740348816
      ],
      "min": [
        0.22532401978969574,
        0.0,
        0.0,
        0.9742838740348816
      ],
      "type": "VEC4"
    },
    {
      "bufferView": 6,
      "byteOffset": 1532,
      "componentType": 5126,
      "count": 96,
      "max": [
        4.0
      ],
      "min": [
        0.0
      ],
      "type": "SCALAR"
    },
    {
      "bufferView": 7,
      "byteOffset": 12,
      "componentType": 5126,
      "count": 96,
      "max": [
        1.0387300252914429,
        1.0387321710586548,
        1.0387321710586548
      ],
      "min": [
        1.0030900239944458,
        1.0030920505523682,
        1.0030920505523682
      ],
      "type": "VEC3"
    },
    {
      "bufferView": 6,
      "byteOffset": 1916,
      "componentType": 5126,
      "count": 1,
      "max": [
        0.0
      ],
      "min": [
        0.0
      ],
      "type": "SCALAR"
    },
    {
      "bufferView": 8,
      "byteOffset": 6112,
      "componentType": 5126,
      "count": 1,
      "max": [
        0.5325032472610474,
        0.0,
        0.0,
        0.8464279770851135
      ],
      "min": [
        0.5325032472610474,
        0.0,
        0.0,
        0.8464279770851135
      ],
      "type": "VEC4"
    },
    {
      "bufferView": 6,
      "byteOffset": 1920,
      "componentType": 5126,
      "count": 1,
      "max": [
        0.0
      ],
      "min": [
        0.0
      ],
      "type": "SCALAR"
    },
    {
      "bufferView": 8,
      "byteOffset": 6128,
      "componentType": 5126,
      "count": 1,
      "max": [
        0.3621864318847656,
        0.48383989930152893,
        0.6558881402015686,
        -0.4522506594657898
      ],
      "min": [
        0.3621864318847656,
        0.48383989930152893,
        0.6558881402015686,
        -0.4522506594657898
      ],
      "type": "VEC4"
    },
    {
      "bufferView": 6,
      "byteOffset": 1924,
      "componentType": 5126,
      "count": 15,
      "max": [
        4.0
      ],
      "min": [
        0.0
      ],
      "type": "SCALAR"
    },
    {
      "bufferView": 8,
      "byteOffset": 6144,
      "componentType": 5126,
      "count": 15,
      "max": [
        0.185947984457016,
        0.05745953321456909,
        0.23171401023864746,
        0.9818008542060852
      ],
      "min": [
        0.18455305695533752,
        0.025693008676171303,
        0.03236711770296097,
        0.9533865451812744
      ],
      "type": "VEC4"
    },
    {
      "bufferView": 6,
      "byteOffset": 1984,
      "componentType": 5126,
      "count": 1,
      "max": [
        0.0
      ],
      "min": [
        0.0
      ],
      "type": "SCALAR"
    },
    {
      "bufferView": 8,
      "byteOffset": 6384,
      "componentType": 5126,
      "count": 1,
      "max": [
        -0.36018744111061096,
        0.4852740168571472,
        0.6515069007873535,
        0.4585988521575928
      ],
      "min": [
        -0.36018744111061096,
        0.4852740168571472,
        0.6515069007873535,
        0.4585988521575928
      ],
      "type": "VEC4"
    },
    {
      "bufferView": 6,
      "byteOffset": 1988,
      "componentType": 5126,
      "count": 12,
      "max": [
        4.0
      ],
      "min": [
        0.0
      ],
      "type": "SCALAR"
    },
    {
      "bufferView": 8,
      "byteOffset": 6400,
      "componentType": 5126,
      "count": 12,
      "max": [
        0.1778694987297058,
        -0.01550225354731083,
        0.02849452756345272,
        0.9838862419128418
      ],
      "min": [
        0.1757739633321762,
        -0.05710963159799576,
        -0.22572921216487885,
        0.9565005302429199
      ],
      "type": "VEC4"
    },
    {
      "bufferView": 6,
      "byteOffset": 2036,
      "componentType": 5126,
      "count": 1,
      "max": [
        0.0
      ],
      "min": [
        0.0
      ],
      "type": "SCALAR"
    },
    {
      "bufferView": 8,
      "byteOffset": 6592,
      "componentType": 5126,
      "count": 1,
      "max": [
        -0.1253172904253006,
        -0.01467119064182043,
        -0.40327709913253784,
        0.9063376188278198
      ],
      "min": [
        -0.1253172904253006,
        -0.01467119064182043,
        -0.40327709913253784,
        0.9063376188278198
      ],
      "type": "VEC4"
    },
    {
      "bufferView": 6,
      "byteOffset": 2040,
      "componentType": 5126,
      "count": 1,
      "max": [
        0.0
      ],
      "min": [
        0.0
      ],
      "type": "SCALAR"
    },
    {
      "bufferView": 8,
      "byteOffset": 6608,
      "componentType": 5126,
      "count": 1,
      "max": [
        -0.12171068787574768,
        0.016344157978892326,
        0.40414437651634216,
        0.9064142107963562
      ],
      "min": [
        -0.12171068787574768,
        0.016344157978892326,
        0.40414437651634216,
        0.9064142107963562
      ],
      "type": "VEC4"
    },
    {
      "bufferView": 6,
      "byteOffset": 2044,
      "componentType": 5126,
      "count": 1,
      "max": [
        0.0
      ],
      "min": [
        0.0
      ],
      "type": "SCALAR"
    },
    {
      "bufferView": 8,
      "byteOffset": 6624,
      "componentType": 5126,
      "count": 1,
      "max": [
        0.0,
        -0.6316059827804565,
        0.7752884030342102,
        0.0
      ],
      "min": [
        0.0,
        -0.6316059827804565,
        0.7752884030342102,
        0.0
      ],
      "type": "VEC4"
    },
    {
      "bufferView": 6,
      "byteOffset": 2048,
      "componentType": 5126,
      "count": 1,
      "max": [
        0.0
      ],
      "min": [
        0.0
      ],
      "type": "SCALAR"
    },
    {
      "bufferView": 8,
      "byteOffset": 6640,
      "componentType": 5126,
      "count": 1,
      "max": [
        0.4974324107170105,
        0.4831509292125702,
        -0.5163001418113708,
        0.5025538206100464
      ],
      "min": [
        0.4974324107170105,
        0.4831509292125702,
        -0.5163001418113708,
        0.5025538206100464
      ],
      "type": "VEC4"
    },
    {
      "bufferView": 6,
      "byteOffset": 2052,
      "componentType": 5126,
      "count": 1,
      "max": [
        0.0
      ],
      "min": [
        0.0
      ],
      "type": "SCALAR"
    },
    {
      "bufferView": 8,
      "byteOffset": 6656,
      "componentType": 5126,
      "count": 1,
      "max": [
        -0.7121028304100037,
        -0.07060057669878006,
        -0.06891638040542603,
        0.6951083540916443
      ],
      "min": [
        -0.7121028304100037,
        -0.07060057669878006,
        -0.06891638040542603,
        0.6951083540916443
      ],
      "type": "VEC4"
    },
    {
      "bufferView": 6,
      "byteOffset": 2056,
      "componentType": 5126,
      "count": 1,
      "max": [
        0.0
      ],
      "min": [
        0.0
      ],
      "type": "SCALAR"
    },
    {
      "bufferView": 8,
      "byteOffset": 6672,
      "componentType": 5126,
      "count": 1,
      "max": [
        -0.03968493267893791,
        0.9991812705993652,
        -0.007786394562572241,
        0.0011209252988919616
      ],
      "min": [
        -0.03968493267893791,
        0.9991812705993652,
        -0.007786394562572241,
        0.0011209252988919616
      ],
      "type": "VEC4"
    },
    {
      "bufferView": 6,
      "byteOffset": 2060,
      "componentType": 5126,
      "count": 1,
      "max": [
        0.0
      ],
      "min": [
        0.0
      ],
      "type": "SCALAR"
    },
    {
      "bufferView": 8,
      "byteOffset": 6688,
      "componentType": 5126,
      "count": 1,
      "max": [
        0.12624968588352203,
        -0.6938171982765198,
        0.13430047035217285,
        0.6961624026298523
      ],
      "min": [
        0.12624968588352203,
        -0.6938171982765198,
        0.13430047035217285,
        0.6961624026298523
      ],
      "type": "VEC4"
    },
    {
      "bufferView": 6,
      "byteOffset": 2064,
      "componentType": 5126,
      "count": 1,
      "max": [
        0.0
      ],
      "min": [
        0.0
      ],
      "type": "SCALAR"
    },
    {
      "bufferView": 8,
      "byteOffset": 6704,
      "componentType": 5126,
      "count": 1,
      "max": [
        0.5045440196990967,
        -0.4757422208786011,
        0.5231348276138306,
        0.4954136312007904
      ],
      "min": [
        0.5045440196990967,
        -0.4757422208786011,
        0.5231348276138306,
        0.4954136312007904
      ],
      "type": "VEC4"
    },
    {
      "bufferView": 6,
      "byteOffset": 2068,
      "componentType": 5126,
      "count": 1,
      "max": [
        0.0
      ],
      "min": [
        0.0
      ],
      "type": "SCALAR"
    },
    {
      "bufferView": 8,
      "byteOffset": 6720,
      "componentType": 5126,
      "count": 1,
      "max": [
        -0.7209628224372864,
        0.06886181980371475,
        0.06556126475334167,
        0.6864199638366699
      ],
      "min": [
        -0.7209628224372864,
        0.06886181980371475,
        0.06556126475334167,
        0.6864199638366699
      ],
      "type": "VEC4"
    },
    {
      "bufferView": 6,
      "byteOffset": 2072,
      "componentType": 5126,
      "count": 1,
      "max": [
        0.0
      ],
      "min": [
        0.0
      ],
      "type": "SCALAR"
    },
    {
      "bufferView": 8,
      "byteOffset": 6736,
      "componentType": 5126,
      "count": 1,
      "max": [
        0.03538749739527702,
        0.9992926120758057,
        -0.012601431459188461,
        -0.0017837357008829713
      ],
      "min": [
        0.03538749739527702,
        0.9992926120758057,
        -0.012601431459188461,
        -0.0017837357008829713
      ],
      "type": "VEC4"
    },
    {
      "bufferView": 6,
      "byteOffset": 2076,
      "componentType": 5126,
      "count": 1,
      "max": [
        0.0
      ],
      "min": [
        0.0
      ],
      "type": "SCALAR"
    },
    {
      "bufferView": 8,
      "byteOffset": 6752,
      "componentType": 5126,
      "count": 1,
      "max": [
        0.1236826479434967,
        0.6932839751243591,
        -0.135893777012825,
        0.6968448758125305
      ],
      "min": [
        0.1236826479434967,
        0.6932839751243591,
        -0.135893777012825,
        0.6968448758125305
      ],
      "type": "VEC4"
    },
    {
      "bufferView": 6,
      "byteOffset": 2080,
      "componentType": 5126,
      "count": 1,
      "max": [
        0.0
      ],
      "min": [
        0.0
      ],
      "type": "SCALAR"
    },
    {
      "bufferView": 8,
      "byteOffset": 6768,
      "componentType": 5126,
      "count": 1,
      "max": [
        0.0,
        -0.06958374381065369,
        0.997576117515564,
        0.0
      ],
      "min": [
        0.0,
        -0.06958374381065369,
        0.997576117515564,
        0.0
      ],
      "type": "VEC4"
    },
    {
      "bufferView": 6,
      "byteOffset": 2084,
      "componentType": 5126,
      "count": 1,
      "max": [
        0.0
      ],
      "min": [
        0.0
      ],
      "type": "SCALAR"
    },
    {
      "bufferView": 8,
      "byteOffset": 6784,
      "componentType": 5126,
      "count": 1,
      "max": [
        0.013871267437934875,
        0.0,
        0.0,
        0.9999037981033325
      ],
      "min": [
        0.013871267437934875,
        0.0,
        0.0,
        0.9999037981033325
      ],
      "type": "VEC4"
    },
    {
      "bufferView": 6,
      "byteOffset": 2088,
      "componentType": 5126,
      "count": 1,
      "max": [
        0.0
      ],
      "min": [
        0.0
      ],
      "type": "SCALAR"
    },
    {
      "bufferView": 8,
      "byteOffset": 6800,
      "componentType": 5126,
      "count": 1,
      "max": [
        -0.037611640989780426,
        0.0,
        0.0,
        0.9992924332618713
      ],
      "min": [
        -0.037611640989780426,
        0.0,
        0.0,
        0.9992924332618713
      ],
      "type": "VEC4"
    },
    {
      "bufferView": 6,
      "byteOffset": 2092,
      "componentType": 5126,
      "count": 97,
      "max": [
        4.0
      ],
      "min": [
        0.0
      ],
      "type": "SCALAR"
    },
    {
      "bufferView": 8,
      "byteOffset": 6816,
      "componentType": 5126,
      "count": 97,
      "max": [
        -0.3200472593307495,
        0.026385167613625526,
        0.014871914871037006,
        0.9471414685249329
      ],
      "min": [
        -0.3207850754261017,
        -0.059140726923942566,
        -0.03334035351872444,
        0.9449630379676819
      ],
      "type": "VEC4"
    },
    {
      "bufferView": 6,
      "byteOffset": 2480,
      "componentType": 5126,
      "count": 1,
      "max": [
        0.0
      ],
      "min": [
        0.0
      ],
      "type": "SCALAR"
    },
    {
      "bufferView": 8,
      "byteOffset": 8368,
      "componentType": 5126,
      "count": 1,
      "max": [
        -0.2888695299625397,
        0.0010937323095276952,
        0.0023439815267920494,
        0.9573684930801392
      ],
      "min": [
        -0.2888695299625397,
        0.0010937323095276952,
        0.0023439815267920494,
        0.9573684930801392
      ],
      "type": "VEC4"
    },
    {
      "bufferView": 6,
      "byteOffset": 2484,
      "componentType": 5126,
      "count": 97,
      "max": [
        4.0
      ],
      "min": [
        0.0
      ],
      "type": "SCALAR"
    },
    {
      "bufferView": 8,
      "byteOffset": 8384,
      "componentType": 5126,
      "count": 97,
      "max": [
        -0.06071912497282028,
        0.002069788286462426,
        0.025511769577860832,
        0.9981535077095032
      ],
      "min": [
        -0.06074220687150955,
        -0.0023074066266417503,
        -0.027380401268601418,
        0.9977741837501526
      ],
      "type": "VEC4"
    },
    {
      "bufferView": 6,
      "byteOffset": 2872,
      "componentType": 5126,
      "count": 1,
      "max": [
        0.0
      ],
      "min": [
        0.0
      ],
      "type": "SCALAR"
    },
    {
      "bufferView": 8,
      "byteOffset": 9936,
      "componentType": 5126,
      "count": 1,
      "max": [
        -0.006364613305777311,
        0.00020847932319156826,
        0.012328922748565674,
        0.9998997449874878
      ],
      "min": [
        -0.006364613305777311,
        0.00020847932319156826,
        0.012328922748565674,
        0.9998997449874878
      ],
      "type": "VEC4"
    },
    {
      "bufferView": 6,
      "byteOffset": 2876,
      "componentType": 5126,
      "count": 97,
      "max": [
        4.0
      ],
      "min": [
        0.0
      ],
      "type": "SCALAR"
    },
    {
      "bufferView": 8,
      "byteOffset": 9952,
      "componentType": 5126,
      "count": 97,
      "max": [
        0.16401872038841248,
        0.9998893141746521,
        -0.014674358069896698,
        0.0006633118027821183
      ],
      "min": [
        -0.15324603021144867,
        0.9863508343696594,
        -0.014876607805490494,
        -0.0007095675682649016
      ],
      "type": "VEC4"
    },
    {
      "bufferView": 6,
      "byteOffset": 3264,
      "componentType": 5126,
      "count": 1,
      "max": [
        0.0
      ],
      "min": [
        0.0
      ],
      "type": "SCALAR"
    },
    {
      "bufferView": 8,
      "byteOffset": 11504,
      "componentType": 5126,
      "count": 1,
      "max": [
        0.0,
        0.9984908699989319,
        -0.054917771369218826,
        -0.0
      ],
      "min": [
        0.0,
        0.9984908699989319,
        -0.054917771369218826,
        -0.0
      ],
      "type": "VEC4"
    },
    {
      "bufferView": 6,
      "byteOffset": 3268,
      "componentType": 5126,
      "count": 1,
      "max": [
        0.0
      ],
      "min": [
        0.0
      ],
      "type": "SCALAR"
    },
    {
      "bufferView": 8,
      "byteOffset": 11520,
      "componentType": 5126,
      "count": 1,
      "max": [
        -0.5283136367797852,
        0.0,
        0.0,
        0.8490492701530457
      ],
      "min": [
        -0.5283136367797852,
        0.0,
        0.0,
        0.8490492701530457
      ],
      "type": "VEC4"
    },
    {
      "bufferView": 6,
      "byteOffset": 3272,
      "componentType": 5126,
      "count": 1,
      "max": [
        0.0
      ],
      "min": [
        0.0
      ],
      "type": "SCALAR"
    },
    {
      "bufferView": 8,
      "byteOffset": 11536,
      "componentType": 5126,
      "count": 1,
      "max": [
        0.40645772218704224,
        -0.40645772218704224,
        0.578612208366394,
        0.578612208366394
      ],
      "min": [
        0.40645772218704224,
        -0.40645772218704224,
        0.578612208366394,
        0.578612208366394
      ],
      "type": "VEC4"
    },
    {
      "bufferView": 6,
      "byteOffset": 3276,
      "componentType": 5126,
      "count": 1,
      "max": [
        0.0
      ],
      "min": [
        0.0
      ],
      "type": "SCALAR"
    },
    {
      "bufferView": 8,
      "byteOffset": 11552,
      "componentType": 5126,
      "count": 1,
      "max": [
        0.5607646703720093,
        0.5963240265846252,
        -0.37999776005744934,
        -0.43074628710746765
      ],
      "min": [
        0.5607646703720093,
        0.5963240265846252,
        -0.37999776005744934,
        -0.43074628710746765
      ],
      "type": "VEC4"
    },
    {
      "bufferView": 6,
      "byteOffset": 3280,
      "componentType": 5126,
      "count": 1,
      "max": [
        0.0
      ],
      "min": [
        0.0
      ],
      "type": "SCALAR"
    },
    {
      "bufferView": 8,
      "byteOffset": 11568,
      "componentType": 5126,
      "count": 1,
      "max": [
        0.03849932551383972,
        0.6964074969291687,
        0.09236413240432739,
        0.7106358408927917
      ],
      "min": [
        0.03849932551383972,
        0.6964074969291687,
        0.09236413240432739,
        0.7106358408927917
      ],
      "type": "VEC4"
    },
    {
      "bufferView": 6,
      "byteOffset": 3284,
      "componentType": 5126,
      "count": 1,
      "max": [
        0.0
      ],
      "min": [
        0.0
      ],
      "type": "SCALAR"
    },
    {
      "bufferView": 8,
      "byteOffset": 11584,
      "componentType": 5126,
      "count": 1,
      "max": [
        0.26603373885154724,
        -0.6531314253807068,
        0.2721043825149536,
        0.6546789407730103
      ],
      "min": [
        0.26603373885154724,
        -0.6531314253807068,
        0.2721043825149536,
        0.6546789407730103
      ],
      "type": "VEC4"
    },
    {
      "bufferView": 6,
      "byteOffset": 3288,
      "componentType": 5126,
      "count": 1,
      "max": [
        0.0
      ],
      "min": [
        0.0
      ],
      "type": "SCALAR"
    },
    {
      "bufferView": 8,
      "byteOffset": 11600,
      "componentType": 5126,
      "count": 1,
      "max": [
        0.40645772218704224,
        0.40645772218704224,
        -0.578612208366394,
        0.578612208366394
      ],
      "min": [
        0.40645772218704224,
        0.40645772218704224,
        -0.578612208366394,
        0.578612208366394
      ],
      "type": "VEC4"
    },
    {
      "bufferView": 6,
      "byteOffset": 3292,
      "componentType": 5126,
      "count": 1,
      "max": [
        0.0
      ],
      "min": [
        0.0
      ],
      "type": "SCALAR"
    },
    {
      "bufferView": 8,
      "byteOffset": 11616,
      "componentType": 5126,
      "count": 1,
      "max": [
        -0.5607646703720093,
        0.5963240265846252,
        -0.37999776005744934,
        0.43074628710746765
      ],
      "min": [
        -0.5607646703720093,
        0.5963240265846252,
        -0.37999776005744934,
        0.43074628710746765
      ],
      "type": "VEC4"
    },
    {
      "bufferView": 6,
      "byteOffset": 3296,
      "componentType": 5126,
      "count": 1,
      "max": [
        0.0
      ],
      "min": [
        0.0
      ],
      "type": "SCALAR"
    },
    {
      "bufferView": 8,
      "byteOffset": 11632,
      "componentType": 5126,
      "count": 1,
      "max": [
        0.0984182059764862,
        0.7118093967437744,
        0.032381821423769,
        0.6946889162063599
      ],
      "min": [
        0.0984182059764862,
        0.7118093967437744,
        0.032381821423769,
        0.6946889162063599
      ],
      "type": "VEC4"
    },
    {
      "bufferView": 6,
      "byteOffset": 3300,
      "componentType": 5126,
      "count": 1,
      "max": [
        0.0
      ],
      "min": [
        0.0
      ],
      "type": "SCALAR"
    },
    {
      "bufferView": 8,
      "byteOffset": 11648,
      "componentType": 5126,
      "count": 1,
      "max": [
        0.26603373885154724,
        -0.6531314253807068,
        0.2721043825149536,
        0.6546789407730103
      ],
      "min": [
        0.26603373885154724,
        -0.6531314253807068,
        0.2721043825149536,
        0.6546789407730103
      ],
      "type": "VEC4"
    },
    {
      "bufferView": 6,
      "byteOffset": 3304,
      "componentType": 5126,
      "count": 1,
      "max": [
        0.0
      ],
      "min": [
        0.0
      ],
      "type": "SCALAR"
    },
    {
      "bufferView": 8,
      "byteOffset": 11664,
      "componentType": 5126,
      "count": 1,
      "max": [
        0.0,
        -0.6996427774429321,
        0.7144927978515625,
        0.0
      ],
      "min": [
        0.0,
        -0.6996427774429321,
        0.7144927978515625,
        0.0
      ],
      "type": "VEC4"
    },
    {
      "bufferView": 6,
      "byteOffset": 3308,
      "componentType": 5126,
      "count": 92,
      "max": [
        4.0
      ],
      "min": [
        0.0
      ],
      "type": "SCALAR"
    },
    {
      "bufferView": 7,
      "byteOffset": 1164,
      "componentType": 5126,
      "count": 92,
      "max": [
        1.008929967880249,
        1.0089304447174072,
        1.0089304447174072
      ],
      "min": [
        0.9959200024604797,
        0.9959204792976379,
        0.9959204792976379
      ],
      "type": "VEC3"
    },
    {
      "bufferView": 6,
      "byteOffset": 3676,
      "componentType": 5126,
      "count": 1,
      "max": [
        0.0
      ],
      "min": [
        0.0
      ],
      "type": "SCALAR"
    },
    {
      "bufferView": 8,
      "byteOffset": 11680,
      "componentType": 5126,
      "count": 1,
      "max": [
        0.4911782741546631,
        -0.4982413351535797,
        0.5017516016960144,
        0.5086696743965149
      ],
      "min": [
        0.4911782741546631,
        -0.4982413351535797,
        0.5017516016960144,
        0.5086696743965149
      ],
      "type": "VEC4"
    },
    {
      "bufferView": 6,
      "byteOffset": 3680,
      "componentType": 5126,
      "count": 1,
      "max": [
        0.0
      ],
      "min": [
        0.0
      ],
      "type": "SCALAR"
    },
    {
      "bufferView": 7,
      "byteOffset": 2268,
      "componentType": 5126,
      "count": 1,
      "max": [
        1.0000014305114746,
        1.0323554277420044,
        1.0000094175338745
      ],
      "min": [
        1.0000014305114746,
        1.0323554277420044,
        1.0000094175338745
      ],
      "type": "VEC3"
    },
    {
      "bufferView": 6,
      "byteOffset": 3684,
      "componentType": 5126,
      "count": 1,
      "max": [
        0.0
      ],
      "min": [
        0.0
      ],
      "type": "SCALAR"
    },
    {
      "bufferView": 8,
      "byteOffset": 11696,
      "componentType": 5126,
      "count": 1,
      "max": [
        -0.49297580122947693,
        -0.49646106362342834,
        0.5106073617935181,
        -0.49978137016296387
      ],
      "min": [
        -0.49297580122947693,
        -0.49646106362342834,
        0.5106073617935181,
        -0.49978137016296387
      ],
      "type": "VEC4"
    },
    {
      "bufferView": 6,
      "byteOffset": 3688,
      "componentType": 5126,
      "count": 1,
      "max": [
        0.0
      ],
      "min": [
        0.0
      ],
      "type": "SCALAR"
    },
    {
      "bufferView": 7,
      "byteOffset": 2280,
      "componentType": 5126,
      "count": 1,
      "max": [
        1.0000145435333252,
        1.0323580503463745,
        0.9999949932098389
      ],
      "min": [
        1.0000145435333252,
        1.0323580503463745,
        0.9999949932098389
      ],
      "type": "VEC3"
    }
  ],
  "animations": [
    {
      "channels": [
        {
          "sampler": 0,
          "target": {
            "node": 10,
            "path": "rotation"
          }
        },
        {
          "sampler": 1,
          "target": {
            "node": 11,
            "path": "rotation"
          }
        },
        {
          "sampler": 2,
          "target": {
            "node": 12,
            "path": "rotation"
          }
        },
        {
          "sampler": 3,
          "target": {
            "node": 13,
            "path": "rotation"
          }
        },
        {
          "sampler": 4,
          "target": {
            "node": 14,
            "path": "rotation"
          }
        },
        {
          "sampler": 5,
          "target": {
            "node": 15,
            "path": "rotation"
          }
        },
        {
          "sampler": 6,
          "target": {
            "node": 16,
            "path": "rotation"
          }
        },
        {
          "sampler": 7,
          "target": {
            "node": 17,
            "path": "translation"
          }
        },
        {
          "sampler": 8,
          "target": {
            "node": 17,
            "path": "rotation"
          }
        },
        {
          "sampler": 9,
          "target": {
            "node": 18,
            "path": "rotation"
          }
        },
        {
          "sampler": 10,
          "target": {
            "node": 19,
            "path": "rotation"
          }
        },
        {
          "sampler": 11,
          "target": {
            "node": 20,
            "path": "rotation"
          }
        },
        {
          "sampler": 12,
          "target": {
            "node": 21,
            "path": "rotation"
          }
        },
        {
          "sampler": 13,
          "target": {
            "node": 21,
            "path": "scale"
          }
        },
        {
          "sampler": 14,
          "target": {
            "node": 22,
            "path": "rotation"
          }
        },
        {
          "sampler": 15,
          "target": {
            "node": 23,
            "path": "rotation"
          }
        },
        {
          "sampler": 16,
          "target": {
            "node": 24,
            "path": "rotation"
          }
        },
        {
          "sampler": 17,
          "target": {
            "node": 25,
            "path": "rotation"
          }
        },
        {
          "sampler": 18,
          "target": {
            "node": 26,
            "path": "rotation"
          }
        },
        {
          "sampler": 19,
          "target": {
            "node": 27,
            "path": "rotation"
          }
        },
        {
          "sampler": 20,
          "target": {
            "node": 28,
            "path": "rotation"
          }
        },
        {
          "sampler": 21,
          "target": {
            "node": 29,
            "path": "rotation"
          }
        },
        {
          "sampler": 22,
          "target": {
            "node": 30,
            "path": "rotation"
          }
        },
        {
          "sampler": 23,
          "target": {
            "node": 31,
            "path": "rotation"
          }
        },
        {
          "sampler": 24,
          "target": {
            "node": 32,
            "path": "rotation"
          }
        },
        {
          "sampler": 25,
          "target": {
            "node": 33,
            "path": "rotation"
          }
        },
        {
          "sampler": 26,
          "target": {
            "node": 34,
            "path": "rotation"
          }
        },
        {
          "sampler": 27,
          "target": {
            "node": 35,
            "path": "rotation"
          }
        },
        {
          "sampler": 28,
          "target": {
            "node": 36,
            "path": "rotation"
          }
        },
        {
          "sampler": 29,
          "target": {
            "node": 37,
            "path": "rotation"
          }
        },
        {
          "sampler": 30,
          "target": {
            "node": 38,
            "path": "rotation"
          }
        },
        {
          "sampler": 31,
          "target": {
            "node": 39,
            "path": "rotation"
          }
        },
        {
          "sampler": 32,
          "target": {
            "node": 40,
            "path": "rotation"
          }
        },
        {
          "sampler": 33,
          "target": {
            "node": 41,
            "path": "rotation"
          }
        },
        {
          "sampler": 34,
          "target": {
            "node": 42,
            "path": "rotation"
          }
        },
        {
          "sampler": 35,
          "target": {
            "node": 43,
            "path": "rotation"
          }
        },
        {
          "sampler": 36,
          "target": {
            "node": 44,
            "path": "rotation"
          }
        },
        {
          "sampler": 37,
          "target": {
            "node": 45,
            "path": "rotation"
          }
        },
        {
          "sampler": 38,
          "target": {
            "node": 46,
            "path": "rotation"
          }
        },
        {
          "sampler": 39,
          "target": {
            "node": 47,
            "path": "rotation"
          }
        },
        {
          "sampler": 40,
          "target": {
            "node": 48,
            "path": "rotation"
          }
        },
        {
          "sampler": 41,
          "target": {
            "node": 49,
            "path": "rotation"
          }
        },
        {
          "sampler": 42,
          "target": {
            "node": 50,
            "path": "rotation"
          }
        },
        {
          "sampler": 43,
          "target": {
            "node": 51,
            "path": "rotation"
          }
        },
        {
          "sampler": 44,
          "target": {
            "node": 52,
            "path": "rotation"
          }
        },
        {
          "sampler": 45,
          "target": {
            "node": 53,
            "path": "rotation"
          }
        },
        {
          "sampler": 46,
          "target": {
            "node": 54,
            "path": "rotation"
          }
        },
        {
          "sampler": 47,
          "target": {
            "node": 55,
            "path": "rotation"
          }
        },
        {
          "sampler": 48,
          "target": {
            "node": 56,
            "path": "rotation"
          }
        },
        {
          "sampler": 49,
          "target": {
            "node": 56,
            "path": "scale"
          }
        },
        {
          "sampler": 50,
          "target": {
            "node": 57,
            "path": "rotation"
          }
        },
        {
          "sampler": 51,
          "target": {
            "node": 57,
            "path": "scale"
          }
        },
        {
          "sampler": 52,
          "target": {
            "node": 58,
            "path": "rotation"
          }
        },
        {
          "sampler": 53,
          "target": {
            "node": 58,
            "path": "scale"
          }
        }
      ],
      "name": "IDLE",
      "samplers": [
        {
          "input": 13,
          "interpolation": "LINEAR",
          "output": 14
        },
        {
          "input": 15,
          "interpolation": "LINEAR",
          "output": 16
        },
        {
          "input": 17,
          "interpolation": "LINEAR",
          "output": 18
        },
        {
          "input": 19,
          "interpolation": "LINEAR",
          "output": 20
        },
        {
          "input": 21,
          "interpolation": "LINEAR",
          "output": 22
        },
        {
          "input": 23,
          "interpolation": "LINEAR",
          "output": 24
        },
        {
          "input": 25,
          "interpolation": "LINEAR",
          "output": 26
        },
        {
          "input": 27,
          "interpolation": "LINEAR",
          "output": 28
        },
        {
          "input": 29,
          "interpolation": "LINEAR",
          "output": 30
        },
        {
          "input": 31,
          "interpolation": "LINEAR",
          "output": 32
        },
        {
          "input": 33,
          "interpolation": "LINEAR",
          "output": 34
        },
        {
          "input": 35,
          "interpolation": "LINEAR",
          "output": 36
        },
        {
          "input": 37,
          "interpolation": "LINEAR",
          "output": 38
        },
        {
          "input": 39,
          "interpolation": "LINEAR",
          "output": 40
        },
        {
          "input": 41,
          "interpolation": "LINEAR",
          "output": 42
        },
        {
          "input": 43,
          "interpolation": "LINEAR",
          "output": 44
        },
        {
          "input": 45,
          "interpolation": "LINEAR",
          "output": 46
        },
        {
          "input": 47,
          "interpolation": "LINEAR",
          "output": 48
        },
        {
          "input": 49,
          "interpolation": "LINEAR",
          "output": 50
        },
        {
          "input": 51,
          "interpolation": "LINEAR",
          "output": 52
        },
        {
          "input": 53,
          "interpolation": "LINEAR",
          "output": 54
        },
        {
          "input": 55,
          "interpolation": "LINEAR",
          "output": 56
        },
        {
          "input": 57,
          "interpolation": "LINEAR",
          "output": 58
        },
        {
          "input": 59,
          "interpolation": "LINEAR",
          "output": 60
        },
        {
          "input": 61,
          "interpolation": "LINEAR",
          "output": 62
        },
        {
          "input": 63,
          "interpolation": "LINEAR",
          "output": 64
        },
        {
          "input": 65,
          "interpolation": "LINEAR",
          "output": 66
        },
        {
          "input": 67,
          "interpolation": "LINEAR",
          "output": 68
        },
        {
          "input": 69,
          "interpolation": "LINEAR",
          "output": 70
        },
        {
          "input": 71,
          "interpolation": "LINEAR",
          "output": 72
        },
        {
          "input": 73,
          "interpolation": "LINEAR",
          "output": 74
        },
        {
          "input": 75,
          "interpolation": "LINEAR",
          "output": 76
        },
        {
          "input": 77,
          "interpolation": "LINEAR",
          "output": 78
        },
        {
          "input": 79,
          "interpolation": "LINEAR",
          "output": 80
        },
        {
          "input": 81,
          "interpolation": "LINEAR",
          "output": 82
        },
        {
          "input": 83,
          "interpolation": "LINEAR",
          "output": 84
        },
        {
          "input": 85,
          "interpolation": "LINEAR",
          "output": 86
        },
        {
          "input": 87,
          "interpolation": "LINEAR",
          "output": 88
        },
        {
          "input": 89,
          "interpolation": "LINEAR",
          "output": 90
        },
        {
          "input": 91,
          "interpolation": "LINEAR",
          "output": 92
        },
        {
          "input": 93,
          "interpolation": "LINEAR",
          "output": 94
        },
        {
          "input": 95,
          "interpolation": "LINEAR",
          "output": 96
        },
        {
          "input": 97,
          "interpolation": "LINEAR",
          "output": 98
        },
        {
          "input": 99,
          "interpolation": "LINEAR",
          "output": 100
        },
        {
          "input": 101,
          "interpolation": "LINEAR",
          "output": 102
        },
        {
          "input": 103,
          "interpolation": "LINEAR",
          "output": 104
        },
        {
          "input": 105,
          "interpolation": "LINEAR",
          "output": 106
        },
        {
          "input": 107,
          "interpolation": "LINEAR",
          "output": 108
        },
        {
          "input": 109,
          "interpolation": "LINEAR",
          "output": 110
        },
        {
          "input": 111,
          "interpolation": "LINEAR",
          "output": 112
        },
        {
          "input": 113,
          "interpolation": "LINEAR",
          "output": 114
        },
        {
          "input": 115,
          "interpolation": "LINEAR",
          "output": 116
        },
        {
          "input": 117,
          "interpolation": "LINEAR",
          "output": 118
        },
        {
          "input": 119,
          "interpolation": "LINEAR",
          "output": 120
        }
      ]
    }
  ],
  "asset": {
    "extras": {
      "author": "BlueMesh (https://sketchfab.com/VapTor)",
      "license": "SKETCHFAB Standard (https://sketchfab.com/licenses)",
      "source": "https://sketchfab.com/3d-models/cow-72206812c8284c399c558783a5fb8552",
      "title": "Cow"
    },
    "generator": "Sketchfab-12.67.0",
    "version": "2.0"
  },
  "bufferViews": [
    {
      "buffer": 0,
      "byteLength": 543576,
      "byteStride": 8,
      "name": "shortBufferViews",
      "target": 34962
    },
    {
      "buffer": 0,
      "byteLength": 443292,
      "byteOffset": 543576,
      "name": "floatBufferViews",
      "target": 34963
    },
    {
      "buffer": 0,
      "byteLength": 543576,
      "byteOffset": 986868,
      "byteStride": 8,
      "name": "floatBufferViews",
      "target": 34962
    },
    {
      "buffer": 0,
      "byteLength": 1630728,
      "byteOffset": 1530444,
      "byteStride": 12,
      "name": "floatBufferViews",
      "target": 34962
    },
    {
      "buffer": 0,
      "byteLength": 1087152,
      "byteOffset": 3161172,
      "byteStride": 16,
      "name": "floatBufferViews",
      "target": 34962
    },
    {
      "buffer": 0,
      "byteLength": 3200,
      "byteOffset": 4248324,
      "name": "floatBufferViews"
    },
    {
      "buffer": 0,
      "byteLength": 3692,
      "byteOffset": 4251524,
      "name": "floatBufferViews"
    },
    {
      "buffer": 0,
      "byteLength": 2292,
      "byteOffset": 4255216,
      "byteStride": 12,
      "name": "floatBufferViews"
    },
    {
      "buffer": 0,
      "byteLength": 11712,
      "byteOffset": 4257508,
      "byteStride": 16,
      "name": "floatBufferViews"
    }
  ],
  "buffers": [
    {
      "byteLength": 4269220,
      "uri": "scene.bin"
    }
  ],
  "extensionsRequired": [
    "KHR_materials_pbrSpecularGlossiness"
  ],
  "extensionsUsed": [
    "KHR_materials_pbrSpecularGlossiness"
  ],
  "images": [
    {
      "uri": "textures/Material.003_diffuse.png"
    },
    {
      "uri": "textures/Material_diffuse.jpeg"
    }
  ],
  "materials": [
    {
      "doubleSided": true,
      "extensions": {
        "KHR_materials_pbrSpecularGlossiness": {
          "diffuseFactor": [
            1.0,
            1.0,
            1.0,
            1.0
          ],
          "diffuseTexture": {
            "index": 0
          },
          "glossinessFactor": 0.4,
          "specularFactor": [
            0.0,
            0.0,
            0.0
          ]
        }
      },
      "name": "Material.003"
    },
    {
      "doubleSided": true,
      "extensions": {
        "KHR_materials_pbrSpecularGlossiness": {
          "diffuseFactor": [
            1.0,
            1.0,
            1.0,
            1.0
          ],
          "diffuseTexture": {
            "index": 1
          },
          "glossinessFactor": 0.4163490854,
          "specularFactor": [
            0.05659298780487805,
            0.05659298780487805,
            0.05659298780487805
          ]
        }
      },
      "name": "Material"
    }
  ],
  "meshes": [
    {
      "name": "2",
      "primitives": [
        {
          "attributes": {
            "JOINTS_0": 9,
            "NORMAL": 1,
            "POSITION": 0,
            "TEXCOORD_0": 2,
            "TEXCOORD_1": 2,
            "TEXCOORD_2": 2,
            "TEXCOORD_3": 2,
            "TEXCOORD_4": 2,
            "TEXCOORD_5": 2,
            "WEIGHTS_0": 10
          },
          "indices": 3,
          "material": 0,
          "mode": 4
        }
      ]
    },
    {
      "name": "Sphere",
      "primitives": [
        {
          "attributes": {
            "JOINTS_0": 11,
            "NORMAL": 5,
            "POSITION": 4,
            "TEXCOORD_0": 6,
            "TEXCOORD_1": 6,
            "WEIGHTS_0": 12
          },
          "indices": 7,
          "material": 1,
          "mode": 4
        }
      ]
    }
  ],
  "nodes": [
    {
      "children": [
        1
      ],
      "matrix": [
        1.0,
        0.0,
        0.0,
        0.0,
        0.0,
        2.220446049250313e-16,
        -1.0,
        0.0,
        0.0,
        1.0,
        2.220446049250313e-16,
        0.0,
        0.0,
        0.0,
        0.0,
        1.0
      ],
      "name": "Sketchfab_model"
    },
    {
      "children": [
        2,
        4,
        6,
        8
      ],
      "name": "Root"
    },
    {
      "children": [
        3
      ],
      "matrix": [
        -0.29086000000000006,
        0.9551700000000001,
        -0.05519000000000001,
        0.0,
        -0.7711,
        -0.19988000000000003,
        0.6045200000000001,
        0.0,
        0.5663900000000001,
        0.21839000000000003,
        0.7946700000000001,
        0.0,
        4.076250000000001,
        1.00545,
        5.903860000000001,
        1.0
      ],
      "name": "Lamp"
    },
    {
      "name": "Lamp"
    },
    {
      "children": [
        5
      ],
      "matrix": [
        0.5887400000000002,
        -0.0,
        0.80832,
        0.0,
        0.0,
        1.0,
        0.0,
        0.0,
        -0.80832,
        0.0,
        0.5887400000000002,
        0.0,
        -9.81371,
        -2.166,
        6.107049999999999,
        1.0
      ],
      "name": "Hemi"
    },
    {
      "name": "Hemi"
    },
    {
      "children": [
        7
      ],
      "matrix": [
        0.45801000000000003,
        0.0,
        -0.8889500000000001,
        0.0,
        -0.0,
        1.0,
        0.0,
        0.0,
        0.8889500000000001,
        0.0,
        0.45801000000000003,
        0.0,
        10.029369999999998,
        -2.166,
        4.37078,
        1.0
      ],
      "name": "Hemi.001"
    },
    {
      "name": "Hemi.001"
    },
    {
      "children": [
        9,
        60,
        62,
        59,
        61
      ],
      "matrix": [
        1.0,
        0.0,
        0.0,
        0.0,
        0.0,
        1.0,
        0.0,
        0.0,
        0.0,
        0.0,
        1.0,
        0.0,
        0.004680000000000001,
        -0.5156400000000001,
        1.58381,
        1.0
      ],
      "name": "Armature"
    },
    {
      "children": [
        10,
        38,
        56
      ],
      "name": "Armature_rootJoint"
    },
    {
      "children": [
        11
      ],
      "name": "Bone_Armature",
      "rotation": [
        0.0324721597135067,
        0.0,
        0.0,
        0.9994726181030273
      ],
      "scale": [
        1.0,
        0.9999988675117493,
        0.9999988675117493
      ],
      "translation": [
        0.0,
        -0.4840500056743622,
        0.22171999514102936
      ]
    },
    {
      "children": [
        12,
        29
      ],
      "name": "Bone.001_Armature",
      "rotation": [
        -0.005330092739313841,
        0.0,
        0.0,
        0.9999858140945435
      ],
      "scale": [
        1.0,
        0.9999968409538269,
        0.9999968409538269
      ],
      "translation": [
        0.0,
        1.0,
        0.0
      ]
    },
    {
      "children": [
        13
      ],
      "name": "Bone.002_Armature",
      "rotation": [
        -0.07410847395658493,
        0.0,
        0.0,
        0.9972501993179321
      ],
      "scale": [
        1.0,
        1.0000041723251343,
        1.0000041723251343
      ],
      "translation": [
        0.0,
        0.6863499879837036,
        0.0
      ]
    },
    {
      "children": [
        14
      ],
      "name": "Bone.003_Armature",
      "rotation": [
        0.06737814098596573,
        0.0,
        0.0,
        0.9977275133132935
      ],
      "scale": [
        1.0,
        0.9999996423721313,
        0.9999996423721313
      ],
      "translation": [
        0.0,
        0.7931399941444397,
        0.0
      ]
    },
    {
      "children": [
        15,
        22,
        27,
        28
      ],
      "name": "Bone.004_Armature",
      "rotation": [
        0.06688991189002991,
        0.0,
        0.0,
        0.9977603554725647
      ],
      "scale": [
        1.0,
        0.9999985098838806,
        0.9999985098838806
      ],
      "translation": [
        0.0,
        0.730650007724762,
        0.0
      ]
    },
    {
      "children": [
        16
      ],
      "name": "Bone.005_Armature",
      "rotation": [
        -0.3537794053554535,
        0.0,
        0.0,
        0.9353289008140564
      ],
      "scale": [
        1.0,
        0.9999996423721313,
        0.9999996423721313
      ],
      "translation": [
        0.0,
        0.7715799808502197,
        0.0
      ]
    },
    {
      "children": [
        17,
        19,
        21
      ],
      "name": "Bone.006_Armature",
      "rotation": [
        -0.21225737035274506,
        0.0,
        0.0,
        0.9772137999534607
      ],
      "scale": [
        1.0,
        0.9999960064888,
        0.9999960064888
      ],
      "translation": [
        0.0,
        0.6285799741744995,
        0.0
      ]
    },
    {
      "children": [
        18
      ],
      "name": "Bone.021_Armature",
      "rotation": [
        0.22850137948989868,
        0.0,
        0.0,
        0.9735435843467712
      ],
      "scale": [
        1.0,
        0.9999952912330627,
        0.9999952912330627
      ],
      "translation": [
        0.0,
        0.7231900095939636,
        -0.18167999386787415
      ]
    },
    {
      "name": "Bone.022_Armature",
      "rotation": [
        0.2281530648469925,
        0.0,
        0.0,
        0.9736253023147583
      ],
      "scale": [
        1.0,
        0.9999973773956299,
        0.9999973773956299
      ],
      "translation": [
        0.0,
        0.1328199952840805,
        0.0
      ]
    },
    {
      "children": [
        20
      ],
      "name": "Bone.024_Armature",
      "rotation": [
        0.0,
        -0.40761488676071167,
        0.9131539463996887,
        0.0
      ],
      "scale": [
        1.0,
        0.9999996423721313,
        0.9999996423721313
      ],
      "translation": [
        0.0,
        0.7231900095939636,
        -0.18167999386787415
      ]
    },
    {
      "name": "Bone.025_Armature",
      "rotation": [
        0.02488773874938488,
        0.0,
        0.0,
        0.9996902346611023
      ],
      "scale": [
        1.0,
        0.9999988079071045,
        0.9999988079071045
      ],
      "translation": [
        0.0,
        0.388619989156723,
        0.0
      ]
    },
    {
      "name": "Bone.023_Armature",
      "rotation": [
        0.22532401978969574,
        0.0,
        0.0,
        0.9742838740348816
      ],
      "scale": [
        1.0,
        1.0000020265579224,
        1.0000020265579224
      ],
      "translation": [
        0.0,
        0.6384299993515015,
        0.0
      ]
    },
    {
      "children": [
        23,
        25
      ],
      "name": "Bone.007_Armature",
      "rotation": [
        0.5325032472610474,
        0.0,
        0.0,
        0.8464279770851135
      ],
      "scale": [
        1.0,
        0.9999985694885254,
        0.9999985694885254
      ],
      "translation": [
        0.0,
        0.7715799808502197,
        0.0
      ]
    },
    {
      "children": [
        24
      ],
      "name": "Bone.044_Armature",
      "rotation": [
        0.362186461687088,
        0.4838399589061737,
        0.6558881998062134,
        -0.45225071907043457
      ],
      "scale": [
        0.9999982118606567,
        0.9999955296516418,
        1.0000042915344238
      ],
      "translation": [
        0.0,
        0.19339999556541443,
        0.0
      ]
    },
    {
      "name": "Bone.046_Armature",
      "rotation": [
        0.18385016918182373,
        0.040641456842422485,
        0.11512350291013718,
        0.9753429889678955
      ],
      "scale": [
        1.000003457069397,
        0.9999948143959045,
        1.0000064373016357
      ],
      "translation": [
        0.0,
        0.4229600131511688,
        0.0
      ]
    },
    {
      "children": [
        26
      ],
      "name": "Bone.045_Armature",
      "rotation": [
        -0.36018744111061096,
        0.4852740168571472,
        0.6515069007873535,
        0.4585988521575928
      ],
      "scale": [
        0.9999948740005493,
        1.0000051259994507,
        0.9999969601631165
      ],
      "translation": [
        0.0,
        0.19339999556541443,
        0.0
      ]
    },
    {
      "name": "Bone.047_Armature",
      "rotation": [
        0.1776784211397171,
        -0.03840779885649681,
        -0.11071691662073135,
        0.9770859479904175
      ],
      "scale": [
        0.9999963045120239,
        1.0000061988830566,
        0.9999998807907104
      ],
      "translation": [
        0.0,
        0.4346100091934204,
        0.0
      ]
    },
    {
      "name": "Bone.048_Armature",
      "rotation": [
        -0.1253172904253006,
        -0.01467119064182043,
        -0.40327709913253784,
        0.9063376188278198
      ],
      "scale": [
        0.999994158744812,
        1.0000059604644775,
        0.9999979138374329
      ],
      "translation": [
        0.0,
        0.7715799808502197,
        0.0
      ]
    },
    {
      "name": "Bone.049_Armature",
      "rotation": [
        -0.12171068787574768,
        0.016344157978892326,
        0.40414437651634216,
        0.9064142107963562
      ],
      "scale": [
        1.0000061988830566,
        0.9999966621398926,
        1.0000007152557373
      ],
      "translation": [
        0.0,
        0.7715799808502197,
        0.0
      ]
    },
    {
      "children": [
        30,
        34
      ],
      "name": "Bone.017_Armature",
      "rotation": [
        0.0,
        -0.673632025718689,
        0.7390668988227844,
        0.0
      ],
      "scale": [
        1.0,
        1.0000017881393433,
        1.0000017881393433
      ],
      "translation": [
        0.0,
        0.6863499879837036,
        0.0
      ]
    },
    {
      "children": [
        31
      ],
      "name": "Bone.026_Armature",
      "rotation": [
        0.4974324107170105,
        0.4831509292125702,
        -0.5163001418113708,
        0.5025538206100464
      ],
      "scale": [
        1.0000004768371582,
        1.0000030994415283,
        1.0000067949295044
      ],
      "translation": [
        0.0,
        1.751889944076538,
        0.0
      ]
    },
    {
      "children": [
        32
      ],
      "name": "Bone.028_Armature",
      "rotation": [
        -0.7121028304100037,
        -0.07060057669878006,
        -0.06891638040542603,
        0.6951083540916443
      ],
      "scale": [
        0.9999973177909851,
        1.0000041723251343,
        1.0000019073486328
      ],
      "translation": [
        0.0,
        0.6644999980926514,
        0.0
      ]
    },
    {
      "children": [
        33
      ],
      "name": "Bone.029_Armature",
      "rotation": [
        -0.03968493640422821,
        0.9991813898086548,
        -0.0077863954938948154,
        0.0011209254153072834
      ],
      "scale": [
        0.9999983310699463,
        1.000003457069397,
        1.0000052452087402
      ],
      "translation": [
        0.0,
        1.633430004119873,
        0.0
      ]
    },
    {
      "name": "Bone.038_Armature",
      "rotation": [
        0.12624968588352203,
        -0.6938171982765198,
        0.13430047035217285,
        0.6961624026298523
      ],
      "scale": [
        0.9999979138374329,
        1.0000019073486328,
        1.000003695487976
      ],
      "translation": [
        0.0,
        1.05239999294281,
        0.0
      ]
    },
    {
      "children": [
        35
      ],
      "name": "Bone.027_Armature",
      "rotation": [
        0.5045440196990967,
        -0.4757422208786011,
        0.5231348276138306,
        0.4954136312007904
      ],
      "scale": [
        1.0000029802322388,
        0.9999973177909851,
        0.9999997019767761
      ],
      "translation": [
        0.0,
        1.751889944076538,
        0.0
      ]
    },
    {
      "children": [
        36
      ],
      "name": "Bone.030_Armature",
      "rotation": [
        -0.7209628224372864,
        0.06886181980371475,
        0.06556126475334167,
        0.6864199638366699
      ],
      "scale": [
        0.9999997615814209,
        1.0000019073486328,
        1.0000056028366089
      ],
      "translation": [
        0.0,
        0.6590800285339355,
        0.0
      ]
    },
    {
      "children": [
        37
      ],
      "name": "Bone.031_Armature",
      "rotation": [
        0.03538750112056732,
        0.9992927312850952,
        -0.01260143332183361,
        -0.001783735933713615
      ],
      "scale": [
        0.9999988079071045,
        1.0000020265579224,
        1.0000061988830566
      ],
      "translation": [
        0.0,
        1.6943800449371338,
        0.0
      ]
    },
    {
      "name": "Bone.039_Armature",
      "rotation": [
        0.1236826628446579,
        0.6932840347290039,
        -0.1358937919139862,
        0.6968449354171753
      ],
      "scale": [
        1.0000016689300537,
        0.9999984502792358,
        1.0000033378601074
      ],
      "translation": [
        0.0,
        1.0401699542999268,
        0.0
      ]
    },
    {
      "children": [
        39
      ],
      "name": "Bone.008_Armature",
      "rotation": [
        0.0,
        -0.06958374381065369,
        0.997576117515564,
        0.0
      ],
      "scale": [
        1.0,
        1.0000038146972656,
        0.9999938011169434
      ],
      "translation": [
        0.0,
        -0.4840500056743622,
        0.22171999514102936
      ]
    },
    {
      "children": [
        40,
        47
      ],
      "name": "Bone.009_Armature",
      "rotation": [
        0.013871267437934875,
        0.0,
        0.0,
        0.9999037981033325
      ],
      "scale": [
        1.0,
        1.000004768371582,
        1.000004768371582
      ],
      "translation": [
        0.0,
        0.8048800230026245,
        0.0
      ]
    },
    {
      "children": [
        41
      ],
      "name": "Bone.010_Armature",
      "rotation": [
        -0.037611640989780426,
        0.0,
        0.0,
        0.9992924332618713
      ],
      "scale": [
        1.0,
        0.9999992847442627,
        0.9999992847442627
      ],
      "translation": [
        0.0,
        0.9369900226593018,
        0.0
      ]
    },
    {
      "children": [
        42
      ],
      "name": "Bone.011_Armature",
      "rotation": [
        -0.32078826427459717,
        0.0,
        0.0,
        0.9471509456634521
      ],
      "scale": [
        1.0,
        1.000000238418579,
        1.000000238418579
      ],
      "translation": [
        0.0,
        0.9628199934959412,
        0.0
      ]
    },
    {
      "children": [
        43
      ],
      "name": "Bone.012_Armature",
      "rotation": [
        -0.2888695299625397,
        0.0,
        0.0,
        0.9573684930801392
      ],
      "scale": [
        1.0,
        1.0000014305114746,
        1.0000014305114746
      ],
      "translation": [
        0.0,
        0.2901400029659271,
        0.0
      ]
    },
    {
      "children": [
        44
      ],
      "name": "Bone.013_Armature",
      "rotation": [
        -0.06074220687150955,
        0.0,
        0.0,
        0.9981535077095032
      ],
      "scale": [
        1.0,
        0.9999992251396179,
        0.9999992251396179
      ],
      "translation": [
        0.0,
        0.36136001348495483,
        0.0
      ]
    },
    {
      "children": [
        45
      ],
      "name": "Bone.014_Armature",
      "rotation": [
        -0.006365122273564339,
        0.0,
        0.0,
        0.9999797344207764
      ],
      "scale": [
        1.0,
        1.000001072883606,
        1.000001072883606
      ],
      "translation": [
        0.0,
        0.6408299803733826,
        0.0
      ]
    },
    {
      "children": [
        46
      ],
      "name": "Bone.015_Armature",
      "rotation": [
        0.0,
        0.9998894333839417,
        -0.014876608736813068,
        4.9994405344477855e-06
      ],
      "scale": [
        1.0,
        1.0000026226043701,
        1.0000026226043701
      ],
      "translation": [
        0.0,
        0.7077400088310242,
        0.0
      ]
    },
    {
      "name": "Bone.016_Armature",
      "rotation": [
        0.0,
        0.9984909892082214,
        -0.05491777881979942,
        0.0
      ],
      "scale": [
        1.0,
        1.0000019073486328,
        1.0000019073486328
      ],
      "translation": [
        0.0,
        0.3874399960041046,
        0.0
      ]
    },
    {
      "children": [
        48,
        52
      ],
      "name": "Bone.018_Armature",
      "rotation": [
        -0.5283136367797852,
        0.0,
        0.0,
        0.8490492701530457
      ],
      "scale": [
        1.0,
        1.0000014305114746,
        1.0000014305114746
      ],
      "translation": [
        0.0,
        0.9369900226593018,
        0.0
      ]
    },
    {
      "children": [
        49
      ],
      "name": "Bone.032_Armature",
      "rotation": [
        0.406457781791687,
        -0.406457781791687,
        0.5786122679710388,
        0.5786122679710388
      ],
      "scale": [
        1.0000046491622925,
        1.0,
        1.0000046491622925
      ],
      "translation": [
        0.0,
        1.1640700101852417,
        0.0
      ]
    },
    {
      "children": [
        50
      ],
      "name": "Bone.034_Armature",
      "rotation": [
        0.5607646703720093,
        0.5963240265846252,
        -0.37999776005744934,
        -0.43074628710746765
      ],
      "scale": [
        0.9999994039535522,
        1.0000020265579224,
        1.0000033378601074
      ],
      "translation": [
        0.0,
        0.6704400181770325,
        0.0
      ]
    },
    {
      "children": [
        51
      ],
      "name": "Bone.036_Armature",
      "rotation": [
        0.03849932551383972,
        0.6964074969291687,
        0.09236413240432739,
        0.7106358408927917
      ],
      "scale": [
        1.0000007152557373,
        0.9999930262565613,
        1.0000044107437134
      ],
      "translation": [
        0.0,
        1.9393500089645386,
        0.0
      ]
    },
    {
      "name": "Bone.040_Armature",
      "rotation": [
        0.26603376865386963,
        -0.6531314849853516,
        0.272104412317276,
        0.654679000377655
      ],
      "scale": [
        1.0000022649765015,
        0.9999960660934448,
        0.9999932646751404
      ],
      "translation": [
        0.0,
        1.1796499490737915,
        0.0
      ]
    },
    {
      "children": [
        53
      ],
      "name": "Bone.033_Armature",
      "rotation": [
        0.406457781791687,
        0.406457781791687,
        -0.5786122679710388,
        0.5786122679710388
      ],
      "scale": [
        1.0000046491622925,
        1.0,
        1.0000046491622925
      ],
      "translation": [
        0.0,
        1.1640700101852417,
        0.0
      ]
    },
    {
      "children": [
        54
      ],
      "name": "Bone.035_Armature",
      "rotation": [
        -0.5607646703720093,
        0.5963240265846252,
        -0.37999776005744934,
        0.43074628710746765
      ],
      "scale": [
        0.9999994039535522,
        1.0000020265579224,
        1.0000033378601074
      ],
      "translation": [
        0.0,
        0.701479971408844,
        0.0
      ]
    },
    {
      "children": [
        55
      ],
      "name": "Bone.037_Armature",
      "rotation": [
        0.0984182059764862,
        0.7118093967437744,
        0.032381821423769,
        0.6946889162063599
      ],
      "scale": [
        1.0000007152557373,
        0.9999988675117493,
        1.0000054836273193
      ],
      "translation": [
        0.0,
        1.9393399953842163,
        0.0
      ]
    },
    {
      "name": "Bone.041_Armature",
      "rotation": [
        0.26603376865386963,
        -0.6531314849853516,
        0.272104412317276,
        0.654679000377655
      ],
      "scale": [
        1.0000022649765015,
        0.9999960660934448,
        0.9999932646751404
      ],
      "translation": [
        0.0,
        1.1796499490737915,
        0.0
      ]
    },
    {
      "children": [
        57,
        58
      ],
      "name": "Bone.019_Armature",
      "rotation": [
        0.0,
        -0.6996427774429321,
        0.7144927978515625,
        0.0
      ],
      "scale": [
        1.0,
        1.0000004768371582,
        1.0000004768371582
      ],
      "translation": [
        0.0,
        -0.4840500056743622,
        0.22171999514102936
      ]
    },
    {
      "name": "Bone.042_Armature",
      "rotation": [
        0.4911782741546631,
        -0.4982413351535797,
        0.5017516016960144,
        0.5086696743965149
      ],
      "scale": [
        1.0000014305114746,
        0.9999955892562866,
        0.999999463558197
      ],
      "translation": [
        0.0,
        1.7733399868011475,
        0.0
      ]
    },
    {
      "name": "Bone.043_Armature",
      "rotation": [
        -0.49297580122947693,
        -0.49646106362342834,
        0.5106073617935181,
        -0.49978137016296387
      ],
      "scale": [
        1.000004529953003,
        0.999998152256012,
        0.9999949932098389
      ],
      "translation": [
        0.0,
        1.7733399868011475,
        0.0
      ]
    },
    {
      "matrix": [
        -0.0,
        0.0,
        -1.0,
        0.0,
        0.0,
        1.0,
        0.0,
        0.0,
        1.0,
        0.0,
        -0.0,
        0.0,
        -0.004680000000000001,
        0.5156400000000001,
        -1.58381,
        1.0
      ],
      "name": "2"
    },
    {
      "mesh": 0,
      "name": "2_0",
      "skin": 0
    },
    {
      "matrix": [
        0.05000000000000001,
        0.0,
        0.0,
        0.0,
        0.0,
        0.09044000000000002,
        0.0,
        0.0,
        0.0,
        0.0,
        0.08052000000000002,
        0.0,
        0.35300000000000004,
        3.82653,
        0.36062000000000005,
        1.0
      ],
      "name": "Sphere"
    },
    {
      "mesh": 1,
      "name": "Sphere_0",
      "skin": 0
    }
  ],
  "samplers": [
    {
      "magFilter": 9729,
      "minFilter": 9987,
      "wrapS": 10497,
      "wrapT": 10497
    }
  ],
  "scene": 0,
  "scenes": [
    {
      "name": "Sketchfab_Scene",
      "nodes": [
        0
      ]
    }
  ],
  "skins": [
    {
      "inverseBindMatrices": 8,
      "joints": [
        9,
        10,
        11,
        12,
        13,
        14,
        15,
        16,
        17,
        18,
        19,
        20,
        21,
        22,
        23,
        24,
        25,
        26,
        27,
        28,
        29,
        30,
        31,
        32,
        33,
        34,
        35,
        36,
        37,
        38,
        39,
        40,
        41,
        42,
        43,
        44,
        45,
        46,
        47,
        48,
        49,
        50,
        51,
        52,
        53,
        54,
        55,
        56,
        57,
        58
      ],
      "skeleton": 9
    }
  ],
  "textures": [
    {
      "sampler": 0,
      "source": 0
    },
    {
      "sampler": 0,
      "source": 1
    }
  ]
}
